<?xml version="1.0" standalone="no"?>
<!DOCTYPE svg PUBLIC "-//W3C//DTD SVG 1.1//EN" "http://www.w3.org/Graphics/SVG/1.1/DTD/svg11.dtd">
<svg xmlns="http://www.w3.org/2000/svg">
<metadata>Copyright (C) 2023 by original authors @ fontello.com</metadata>
<defs>
<font id="dolores-font" horiz-adv-x="1000" >
<font-face font-family="dolores-font" font-weight="400" font-stretch="normal" units-per-em="1000" ascent="850" descent="-150" />
<missing-glyph horiz-adv-x="1000" />
<glyph glyph-name="info" unicode="&#xe800;" d="M571 82v89q0 8-5 13t-12 5h-54v286q0 8-5 13t-13 5h-178q-8 0-13-5t-5-13v-89q0-8 5-13t13-5h53v-179h-53q-8 0-13-5t-5-13v-89q0-8 5-13t13-5h250q7 0 12 5t5 13z m-71 500v89q0 8-5 13t-13 5h-107q-8 0-13-5t-5-13v-89q0-8 5-13t13-5h107q8 0 13 5t5 13z m357-232q0-117-57-215t-156-156-215-58-216 58-155 156-58 215 58 215 155 156 216 58 215-58 156-156 57-215z" horiz-adv-x="857.1" />

<glyph glyph-name="stats" unicode="&#xe801;" d="M40 217q-34 28-39 70t22 76l209 260q26 33 68 38t76-19l127-96 145 181q28 34 70 39t77-23 38-70-22-76l-208-260q-26-32-68-38t-75 19l-128 97-146-182q-30-40-81-40-35 0-65 24z m13-284q-21 0-37 16t-15 37 15 36 37 15l729 0q21 0 37-15t16-36-16-37-37-16l-729 0z" horiz-adv-x="835" />

<glyph glyph-name="plus" unicode="&#xe802;" d="M729 454q44 0 74-31t31-73-31-73-74-30l-208 3 0-212q0-43-30-73t-75-31-73 31-30 73l3 212-212-3q-44 0-74 30t-30 73 30 73 74 31l212 0-3 209q0 42 30 73t73 31 75-31 30-73l0-209 208 0z" horiz-adv-x="834" />

<glyph glyph-name="minus" unicode="&#xe803;" d="M729 455q44 0 74-32t31-73-31-74-74-30l-625 0q-44 0-74 30t-30 74q0 43 31 74t73 31l625 0z" horiz-adv-x="834" />

<glyph glyph-name="back" unicode="&#xe804;" d="M200 350l0-90-200 160 200 170 0-100 550 0q40 0 70-29t30-71l0-280-140 0 0 240-510 0z" horiz-adv-x="850" />

<glyph glyph-name="settings" unicode="&#xe805;" d="M560 741l-156 0-45-178-176 51-79-136 133-128-133-127 79-135 176 50 45-178 156 0 44 178 178-50 77 135-132 127 132 128-77 136-178-51z m0 104q35 0 63-22t37-57l19-73 74 21q15 4 29 4 60 0 90-53l77-135q18-31 13-66t-30-60l-55-54 55-52q25-25 30-60t-13-67l-77-136q-30-51-90-51-14 0-29 3l-74 21-17-74q-9-35-37-57t-65-22l-156 0q-36 0-64 22t-37 57l-19 74-72-22q-15-4-29-4-60 0-90 53l-79 135q-18 31-13 67t31 61l55 52-55 53q-25 25-30 60t12 67l79 135q30 53 90 53 14 0 29-4l72-21 19 73q9 35 37 57t64 22l156 0z m-78-391q-44 0-74-30t-30-74 30-74 74-30 74 31 31 73-31 73-74 31z m0 52q65 0 110-45t46-111-46-111-110-45-111 45-46 111 46 111 111 45z" horiz-adv-x="963" />

<glyph glyph-name="play" unicode="&#xe806;" d="M486 376q14-10 14-26 0-14-14-24l-428-266q-24-16-41-6t-17 40l0 514q0 30 17 40t41-6z" horiz-adv-x="500" />

<glyph glyph-name="dot" unicode="&#xe807;" d="M110 460q46 0 78-32t32-78q0-44-32-77t-78-33-78 33-32 77q0 46 32 78t78 32z" horiz-adv-x="220" />

<glyph glyph-name="pause" unicode="&#xe808;" d="M440 700q90 0 90-64l0-570q0-66-90-66t-90 66l0 570q0 64 90 64z m-350 0q90 0 90-64l0-570q0-66-90-66t-90 66l0 570q0 64 90 64z" horiz-adv-x="530" />

<glyph glyph-name="save" unicode="&#xe809;" d="M714 100q0 15-10 25t-25 11-25-11-11-25 11-25 25-11 25 11 10 25z m143 0q0 15-10 25t-26 11-25-11-10-25 10-25 25-11 26 11 10 25z m72 125v-179q0-22-16-37t-38-16h-821q-23 0-38 16t-16 37v179q0 22 16 38t38 16h259l75-76q33-32 76-32t76 32l76 76h259q22 0 38-16t16-38z m-182 318q10-23-8-39l-250-250q-10-11-25-11t-25 11l-250 250q-17 16-8 39 10 21 33 21h143v250q0 15 11 25t25 11h143q14 0 25-11t10-25v-250h143q24 0 33-21z" horiz-adv-x="928.6" />

<glyph glyph-name="stop" unicode="&#xe80a;" d="M526 650q74 0 74-64l0-470q0-66-74-66l-450 0q-76 0-76 66l0 470q0 36 18 50t58 14l450 0z" horiz-adv-x="600" />

<glyph glyph-name="circle" unicode="&#xf192;" d="M571 350q0-59-41-101t-101-42-101 42-42 101 42 101 101 42 101-42 41-101z m-142 304q-83 0-153-41t-110-111-41-152 41-152 110-111 153-41 152 41 110 111 41 152-41 152-110 111-152 41z m428-304q0-117-57-215t-156-156-215-58-216 58-155 156-58 215 58 215 155 156 216 58 215-58 156-156 57-215z" horiz-adv-x="857.1" />
</font>
</defs>
</svg>
